[
	{
		"name": "Recoil",
		"image": "cover.svg",
		"directory": "recoil",
		"recommended": "1"
	},
	{
		"name": "Karlson't",
		"image": "cover.svg",
		"directory": "karlsont",
		"recommended": "1"
	},
	{
		"name": "Deepest Sword",
		"image": "cover.svg",
		"directory": "deepest",
		"recommended": "1"
	},
	{
		"name": "Tomb of The Mask",
		"image": "cover.svg",
		"directory": "tombofthemask",
		"recommended": "1"
	},
	{
		"name": "Hill Climb Racing",
		"image": "cover.svg",
		"directory": "hillclimbracing",
		"recommended": "1"
	},
	{
		"name": "Gladihoppers",
		"image": "cover.svg",
		"directory": "gladihoppers",
		"recommended": "1"
	},
	{
		"name": "3kh0 v4",
		"image": "cover.svg",
		"directory": "3kh0v4",
		"recommended": "1"
	},
	{
		"name": "Flappy Copter",
		"image": "cover.svg",
		"directory": "flappycopter",
		"recommended": "1"
	},
	{
		"name": "Eaglercraft 1.12.2",
		"image": "cover.svg",
		"directory": "eg1.12.2",
		"recommended": "1"
	},
	{
		"name": "Eaglercraft 1.5.2 Service Pack 1",
		"image": "cover.svg",
		"directory": "mc-sp1",
		"recommended": "1"
	},
	{
		"name": "Ayuncraft",
		"image": "cover.svg",
		"directory": "ayun",
		"recommended": "1"
	},
	{
		"name": "FlashGL Demo",
		"image": "cover.svg",
		"directory": "flashgl",
		"recommended": "1"
	},
	{
		"name": "Kick That Buddy",
		"image": "cover.svg",
		"directory": "kickthatbuddy",
		"recommended": "1"
	},
	{
		"name": "Codercraft",
		"image": "cover.svg",
		"directory": "codercraft",
		"recommended": "1"
	},
	{
		"name": "Nebula Client",
		"image": "cover.svg",
		"directory": "nebula",
		"recommended": "1"
	},
	{
		"name": "Grand Truckismo",
		"image": "cover.svg",
		"directory": "grandtruckismo",
		"recommended": "1"
	},
	{
		"name": "Turbo Racing 3",
		"image": "cover.svg",
		"directory": "turboracing3",
		"recommended": "1"
	},
	{
		"name": "The Binding of Issac",
		"image": "cover.svg",
		"directory": "tboi",
		"recommended": "1"
	},
	{
		"name": "Gun Knight",
		"image": "cover.svg",
		"directory": "gunknight",
		"recommended": "1"
	},
	{
		"name": "Web Assembly Flash (WAFlash)",
		"image": "cover.svg",
		"directory": "waflash",
		"recommended": "1"
	},
	{
		"name": "The Oregon Trail",
		"image": "cover.svg",
		"directory": "oregon",
		"recommended": "1"
	},
	{
		"name": "Scratch 2",
		"image": "cover.svg",
		"directory": "scratch2",
		"recommended": "1"
	},
	{
		"name": "Windows 98",
		"image": "cover.svg",
		"directory": "windows98",
		"recommended": "1"
	},
	{
		"name": "Bullet Heaven",
		"image": "cover.svg",
		"directory": "heaven",
		"recommended": "1"
	},
	{
		"name": "Creeper Craft",
		"image": "cover.svg",
		"directory": "creepercraft",
		"recommended": "1"
	},
	{
		"name": "Block Zappers 3",
		"image": "cover.svg",
		"directory": "zap",
		"recommended": "1"
	},
	{
		"name": "Frogger",
		"image": "cover.svg",
		"directory": "frogger",
		"recommended": "1"
	},
	{
		"name": "Simon",
		"image": "cover.svg",
		"directory": "simon",
		"recommended": "1"
	},
	{
		"name": "CSR 2",
		"image": "cover.svg",
		"directory": "splash",
		"recommended": "1"
	},
	{
		"name": "Beach Buggy Racing",
		"image": "cover.svg",
		"directory": "dune",
		"recommended": "1"
	},
	{
		"name": "Super Mario 63",
		"image": "cover.svg",
		"directory": "mario63",
		"recommended": "1"
	},	
	{
		"name": "Bike Champ 2",
		"image": "cover.svg",
		"directory": "bikechamp2",
		"recommended": "1"
	},
	{
		"name": "Grand Theft Grotto",
		"image": "cover.svg",
		"directory": "gtg",
		"recommended": "1"
	},
	{
		"name": "Bike Champ",
		"image": "cover.svg",
		"directory": "bikechamp",
		"recommended": "1"
	},
	{
		"name": "Gloom",
		"image": "cover.svg",
		"directory": "gloom",
		"recommended": "1"
	},
	{
		"name": "Copter",
		"image": "cover.svg",
		"directory": "copter",
		"recommended": "1"
	},
	{
		"name": "Precision Client",
		"image": "cover.svg",
		"directory": "pre",
		"recommended": "1"
	},
	{
		"name": "Dragon Client",
		"image": "cover.svg",
		"directory": "drag",
		"recommended": "1"
	},
	{
		"name": "Minecraft Infdev",
		"image": "cover.svg",
		"directory": "inf",
		"recommended": "1"
	},
	{
		"name": "Minesweeper",
		"image": "cover.svg",
		"directory": "minesweeper",
		"recommended": "1"
	},
	{
		"name": "POOM",
		"image": "cover.svg",
		"directory": "poom",
		"recommended": "1"
	},
	{
		"name": "Solitaire",
		"image": "cover.svg",
		"directory": "solitaire",
		"recommended": "1"
	},
	{
		"name": "Spank the Monkey",
		"image": "cover.svg",
		"directory": "spankthemonkey",
		"recommended": "1"
	},
	{
		"name": "CMM Client",
		"image": "cover.svg",
		"directory": "cmm-client",
		"recommended": "1"
	},
	{
		"name": "Pool",
		"image": "cover.svg",
		"directory": "pool",
		"recommended": "1"
	},
	{
		"name": "Yohoho.io",
		"image": "cover.svg",
		"directory": "yohoho",
		"recommended": "1"
	},
	{
		"name": "Tube Jumpers",
		"image": "cover.svg",
		"directory": "tube-jumpers",
		"recommended": "1"
	},
	{
		"name": "Hill Climb Racing 2",
		"image": "cover.svg",
		"directory": "hillclimbracing2",
		"recommended": "1"
	},
	{
		"name": "DOOM",
		"image": "cover.svg",
		"directory": "doom",
		"recommended": "1"
	},
	{
		"name": "Awesome Tanks",
		"image": "cover.svg",
		"directory": "awesometanks",
		"recommended": "1"
	},
	{
		"name": "Pong",
		"directory": "pong",
		"image": "cover.svg",
		"recommended": "1"
	},
	{
		"name": "A Dance of Fire & Ice",
		"directory": "adofai",
		"image": "icon.png",
		"recommended": "1"
	},
	{
		"name": "Resent Client",
		"directory": "online-mc",
		"image": "logo.png"
	},
	{
		"name": "Eaglercraft 1.5.2 RTM",
		"directory": "offline-mc",
		"image": "logo.png",
		"recommended": "1"
	},
	{
		"name": "Friday Night Funkin",
		"directory": "fridaynightfunkin",
		"image": "fnf-icon.jpg",
		"recommended": "1"
	},
	{
		"name": "Worlds Hardest Game",
		"directory": "worldshardestgame",
		"image": "icon.png"
	},
	{
		"name": "GBA Emulator",
		"directory": "gba",
		"image": "icon.png",
		"recommended": "1"
	},
	{
		"name": "Celeste",
		"directory": "celeste",
		"image": "icon.png",
		"recommended": "1"
	},
	{
		"name": "Mario",
		"directory": "mario",
		"image": "icon.png"
	},
	{
		"name": "60s Burger Run",
		"directory": "60sburgerrun",
		"image": "icon.png"
	},
	{
		"name": "Cluster Rush",
		"directory": "cluster-rush",
		"image": "icon.jpg"
	},
	{
		"name": "Vex 3",
		"directory": "vex3",
		"image": "icon.png"
	},
	{
		"name": "Adventure Capitalist",
		"directory": "adventure-capitalist",
		"image": "logo.webp"
	},
	{
		"name": "Bloons Tower Defense 3",
		"directory": "btd3",
		"image": "icon.png"
	},
	{
		"name": "Avalanche",
		"directory": "avalanche",
		"image": "icon.png"
	},
	{
		"name": "Slope",
		"directory": "slope",
		"image": "slope4.jpeg"
	},
	{
		"name": "Cell Machine",
		"directory": "cell-machine",
		"image": "img/icon.png"
	},
	{
		"name": "Run 2",
		"directory": "run2",
		"image": "icon.jpg"
	},
	{
		"name": "Vex 5",
		"directory": "vex5",
		"image": "icon.png"
	},
	{
		"name": "Vex 4",
		"directory": "vex4",
		"image": "vex4.png"
	},
	{
		"name": "Vex 2",
		"directory": "vex2",
		"image": "icon.png"
	},
	{
		"name": "Crossy Road",
		"directory": "crossyroad",
		"image": "chicken.png"
	},
	{
		"name": "Wall Smash",
		"directory": "wallsmash",
		"image": "icon.png"
	},
	{
		"name": "Death Run 3D",
		"directory": "death-run-3d",
		"image": "img/death.png"
	},
	{
		"name": "Gun Mayhem 2",
		"directory": "gunmayhem2",
		"image": "icon.png"
	},
	{
		"name": "CircloO",
		"directory": "circloo",
		"image": "icon.png"
	},
	{
		"name": "Vex",
		"directory": "vex",
		"image": "icon.png"
	},
	{
		"name": "Stack",
		"directory": "stack",
		"image": "icon.png"
	},
	{
		"name": "xx142-b2.exe",
		"directory": "xx142-b2.exe",
		"image": "icon.png"
	},
	{
		"name": "paper.io",
		"directory": "paperio",
		"image": "icon.png"
	},
	{
		"name": "Chibi Knight",
		"directory": "chibiknight",
		"image": "icon.png"
	},
	{
		"name": "1v1.lol",
		"directory": "1v1lol",
		"image": "splash.png"
	},
	{
		"name": "Dino",
		"directory": "dino",
		"image": "icon.png"
	},
	{
		"name": "Turbowarp",
		"directory": "turbowarp",
		"image": "icon.png"
	},
	{
		"name": "Tetris",
		"directory": "tetris",
		"image": "icon.png"
	},
	{
		"name": "Geometry Dash (Scratch)",
		"directory": "geometrydash",
		"image": "icon.png"
	},
	{
		"name": "Sand Game",
		"directory": "sand",
		"image": "icon.png"
	},
	{
		"name": "Dante",
		"directory": "dante",
		"image": "icon.png"
	},
	{
		"name": "Wordle",
		"directory": "wordle",
		"image": "icon.png"
	},
	{
		"name": "Offline Paradise",
		"directory": "offlineparadise",
		"image": "icon.png"
	},
	{
		"name": "2048",
		"directory": "2048",
		"image": "icon.png"
	},
	{
		"name": "Doodle Jump",
		"directory": "doodlejump",
		"image": "icon.png"
	},
	{
		"name": "Weave Silk",
		"directory": "weavesilk",
		"image": "icon.png"
	},
	{
		"name": "Super Meat Boy",
		"directory": "supermeatboy",
		"image": "icon.png"
	},
	{
		"name": "Vex 6",
		"directory": "vex6",
		"image": "icon.png"
	},
	{
		"name": "WebGL Fluid Sim",
		"directory": "fluidsim",
		"image": "icon.png"
	},
	{
		"name": "Basketball Stars",
		"directory": "basketball-stars",
		"image": "icon.png"
	},
	{
		"name": "osu!",
		"directory": "osu",
		"image": "icon.png"
	},
	{
		"name": "Cookie Clicker",
		"directory": "cookieclicker",
		"image": "img/perfectCookie.png"
	},
	{
		"name": "Superhot",
		"directory": "superhot",
		"image": "icon.png"
	},
	{
		"name": "Super Mario 64",
		"directory": "supermario64",
		"image": "icon.png",
		"recommended": "1"
	},
	{
		"name": "Gun Mayhem Redux",
		"directory": "gunmayhemredux",
		"image": "icon.png"
	},
	{
		"name": "I Wanna Be Thy Copy",
		"directory": "iwbtc",
		"image": "icon.png"
	},
	{
		"name": "HexGL",
		"directory": "hexgl",
		"image": "icon_128.png"
	},
	{
		"name": "Champion Island",
		"directory": "championisland",
		"image": "icon.png"
	},
	{
		"name": "Learn to Fly",
		"directory": "learntofly",
		"image": "icon.png"
	},
	{
		"name": "Wordle Bot",
		"directory": "wordlebot",
		"image": "icon.png"
	},
	{
		"name": "Cut The Rope",
		"directory": "cuttherope",
		"image": "icon.png"
	},
	{
		"name": "Chess",
		"directory": "chess",
		"image": "icon.png"
	},
	{
		"name": "Flappy Bird",
		"directory": "flappybird",
		"image": "icon.png"
	},
	{
		"name": "Lows Adventures 2",
		"directory": "lowsadventures2",
		"image": "icon.png"
	},
	{
		"name": "Drift Boss",
		"directory": "drift-boss",
		"image": "icon.png"
	},
	{
		"name": "Fireboy & Watergirl 1",
		"directory": "fireboywatergirl",
		"image": "icon.png"
	},
	{
		"name": "Gun Mayhem",
		"directory": "gunmayhem",
		"image": "icon.png"
	},
	{
		"name": "Duck Life 4",
		"directory": "ducklife4",
		"image": "icon.png"
	},
	{
		"name": "Achievement Unlocked",
		"directory": "achieveunlocked",
		"image": "icon.png"
	},
	{
		"name": "Achievement Unlocked 2",
		"directory": "achieveunlocked2",
		"image": "icon.png"
	},
	{
		"name": "This Is The Only Level",
		"directory": "thisistheonlylevel",
		"image": "logo.png"
	},
	{
		"name": "This Is The Only Level 2",
		"directory": "thisistheonlylevel2",
		"image": "icon.png"
	},
	{
		"name": "Bitlife",
		"directory": "bitlife",
		"image": "bitlife.png"
	},
	{
		"name": "Duck Life 1",
		"directory": "ducklife1",
		"image": "ducklife1.png"
	},
	{
		"name": "Duck Life 2",
		"directory": "ducklife2",
		"image": "ducklife2.png"
	},
	{
		"name": "Duck Life 3",
		"directory": "ducklife3",
		"image": "ducklife3.png"
	},
	{
		"name": "ovo",
		"directory": "ovo",
		"image": "ovo3.png"
	},
	{
		"name": "There Is No Game",
		"directory": "thereisnogame",
		"image": "icon-256.png"
	},
	{
		"name": "Universal Paperclips",
		"directory": "universal-paperclips",
		"image": "universal-paperclips.png",
		"recommended": "1"
	},
	{
		"name": "Windows 11",
		"directory": "win11",
		"image": "favicon.png",
		"recommended": "1"
	},
	{
		"name": "Learn to Fly 2",
		"directory": "learntofly2",
		"image": "logo.jpg"
	},
	{
		"name": "Worlds Hardest Game 2",
		"directory": "worldhardestgame2",
		"image": "the-worlds-hardest-game-2.jpg"
	},
	{
		"name": "Vex 7",
		"directory": "vex7",
		"image": "icon.jpeg"
	},
	{
		"name": "Slope Ball",
		"directory": "slope-ball",
		"image": "icon.jpg"
	},
	{
		"name": "Slope 2",
		"directory": "slope2",
		"image": "slope-2-logo.png"
	},
	{
		"name": "Learn to Fly Idle",
		"directory": "learntoflyidle",
		"image": "icon.jpg"
	},
	{
		"name": "Red Ball 4",
		"directory": "redball4",
		"image": "redball4.webp"
	},
	{
		"name": "Red Ball 4 Vol 3",
		"directory": "redball4vol3",
		"image": "redball4vol3.webp"
	},
	{
		"name": "Red Ball 4 Vol 2",
		"directory": "redball4vol2",
		"image": "redball4vol2.webp"
	},
	{
		"name": "Red Ball 3",
		"directory": "redball3",
		"image": "redball3.png"
	},
	{
		"name": "Snake",
		"directory": "snake",
		"image": "snake.png"
	},
	{
		"name": "Pacman",
		"directory": "pacman",
		"image": "icon.png"
	},
	{
		"name": "Color Switch",
		"directory": "colorswitch",
		"image": "colorswitch.png"
	},
	{
		"name": "Halloween 2016",
		"directory": "halloween2016",
		"image": "logo.png"
	},
	{
		"name": "Game Maker Doodle",
		"directory": "gamemaker",
		"image": "images.jpeg",
		"recommended": "1"
	},
	{
		"name": "The Impossible Game",
		"directory": "theimpossiblegame",
		"image": "image.jpg"
	},
	{
		"name": "Papas Freezeria",
		"directory": "papasfreezeria",
		"image": "images.jpeg"
	},
	{
		"name": "Papas Pizzeria",
		"directory": "papaspizzeria",
		"image": "images.jpeg"
	},
	{
		"name": "Idle Breakout",
		"directory": "idlebreakout",
		"image": "image.png"
	},
	{
		"name": "Stickman Hook",
		"directory": "stickman-hook",
		"image": "icon.jpg",
		"recommended": "1"
	},
	{
		"name": "Drift Hunters",
		"directory": "drifthunters",
		"image": "icon.png"
	},
	{
		"name": "Rocket League",
		"directory": "rocketleague",
		"image": "splash.webp",
		"recommended": "1"
	},
	{
		"name": "Little Alchemy",
		"directory": "littlealchemy",
		"image": "images/192-alpha.png"
	},
	{
		"name": "Retro Bowl",
		"directory": "retrobowl",
		"image": "img/icon.jpg"
	},
	{
		"name": "Tunnel Rush",
		"directory": "tunnelrush",
		"image": "tunnel.jpg"
	},
	{
		"name": "Moto X3M",
		"directory": "motox3m",
		"image": "splash.jpg"
	},
	{
		"name": "Moto X3M Winter",
		"directory": "motox3m-winter",
		"image": "download.jpeg"
	},
	{
		"name": "Moto X3M Pool Party",
		"directory": "motox3m-pool",
		"image": "splash.jpg"
	},
	{
		"name": "Five Nights at Freddy's",
		"directory": "fnaf",
		"image": "splash.jpg"
	},
	{
		"name": "Burrito Bison",
		"directory": "burritobison",
		"image": "Build/logo.png"
	},
	{
		"name": "Cut The Rope Holday",
		"directory": "cuttherope-holiday",
		"image": "Holiday_Gift.webp"
	},
	{
		"name": "Helix Jump",
		"directory": "helixjump",
		"image": "gameIcon.png"
	},
	{
		"name": "Clicker Heroes",
		"directory": "clickerheroes",
		"image": "clicker-heroes.png"
	},
	{
		"name": "Jetpack Joyride",
		"directory": "jetpackjoyride",
		"image": "logo.jpeg"
	},
	{
		"name": "Fruit Ninja",
		"directory": "fruitninja",
		"image": "FruitNinjaTeaser.jpg"
	},
	{
		"name": "Tron",
		"directory": "tron",
		"image": "icon.png"
	},
	{
		"name": "Thirty Dollar Website",
		"directory": "thirtydollarwebsite",
		"image": "assets/🗿.png"
	},
	{
		"name": "n-gon",
		"directory": "ngon",
		"image": "favicon.ico"
	},
	{
		"name": "Subway Surfers",
		"directory": "subway-surfers-ny",
		"image": "NewYorkIcon.png"
	},
	{
		"name": "Madalin Cars",
		"directory": "madalincars",
		"image": "icon.png"
	},
	{
		"name": "Run 3",
		"directory": "run3",
		"image": "icon.jpeg"
	},
	{
		"name": "Dragon Ball Devolution",
		"directory": "dragonballdevolution",
		"image": "images.jpeg"
	},
	{
		"name": "Run",
		"directory": "run",
		"image": "icon.jpeg"
	},
	{
		"name": "Super Smash Flash",
		"directory": "supersmashflash",
		"image": "ssf.jpg"
	},
	{
		"name": "Stickman Climb",
		"directory": "stickmanclimb",
		"image": "icon.avif"
	},
	{
		"name": "Getaway Shooter",
		"directory": "getawayshooter",
		"image": "Untitled.jpeg"
	},
	{
		"name": "Riddle School",
		"directory": "riddleschool",
		"image": "RiddleSchool2.png"
	},
	{
		"name": "Riddle School 2",
		"directory": "riddleschool2",
		"image": "icon.png"
	},
	{
		"name": "Riddle School 3",
		"directory": "riddleschool3",
		"image": "riddle-school-3.webp"
	},
	{
		"name": "Riddle School 4",
		"directory": "riddleschool4",
		"image": "Untitled.jpeg"
	},
	{
		"name": "Riddle School 5",
		"directory": "riddleschool5",
		"image": "Untitled.jpeg"
	},
	{
		"name": "Riddle Transfer",
		"directory": "riddleschooltransfer",
		"image": "Untitled.jpeg"
	},
	{
		"name": "Riddle Transfer 2",
		"directory": "riddleschooltransfer2",
		"image": "aUntitled.jpeg"
	},
	{
		"name": "Zombocalypse",
		"directory": "zombocalypse",
		"image": "zombocalypse-2.webp"
	},
	{
		"name": "Papas Burgeria",
		"directory": "papasburgeria",
		"image": "images.jpeg"
	},
	{
		"name": "Duck Life 5",
		"directory": "ducklife5",
		"image": "ducklife5.png"
	},
	{
		"name": "Duck Life 6",
		"directory": "ducklife6",
		"image": "ducklife5.png"
	},
	{
		"name": "webretro",
		"directory": "webretro",
		"image": "assets/icons/icon204.png"
	},
	{
		"name": "osu!mania",
		"directory": "osumania",
		"image": "mania.jpg"
	},
	{
		"name": "Five Nights at Freddy's 2",
		"directory": "fnaf2",
		"image": "project/splash.webp"
	},
	{
		"name": "Five Nights at Freddy's 3",
		"directory": "fnaf3",
		"image": "project/splash.webp"
	},
	{
		"name": "Five Nights at Freddy's 4",
		"directory": "fnaf4",
		"image": "project/splash.webp"
	},
	{
		"name": "Temple Run 2",
		"directory": "templerun2",
		"image": "img/icons/icon-128x128.png"
	},
	{
		"name": "Happy Wheels",
		"directory": "happywheels",
		"image": "Untitled.jpeg"
	},
	{
		"name": "Fireboy & Watergirl 2",
		"directory": "fireboywatergirl2",
		"image": "Untitled.jpeg"
	},
	{
		"name": "Fireboy & Watergirl 3",
		"directory": "fireboywatergirl3",
		"image": "icon.png"
	},
	{
		"name": "Fireboy & Watergirl 4",
		"directory": "fireboywatergirl4",
		"image": "300.jpg"
	},
	{
		"name": "Rise Higher",
		"directory": "risehigher",
		"image": "media/graphics/promo/Icons/128x128.png"
	},
	{
		"name": "Hextris",
		"directory": "hextris",
		"image": "images/icons/apple-touch-152.png"
	},
	{
		"name": "Sprinter",
		"directory": "sprinter",
		"image": "icon.jpeg"
	},
	{
		"name": "Amazing Rope Police",
		"directory": "amazing-rope-police",
		"image": "splash.jpeg"
	},
	{
		"name": "Ruffle",
		"directory": "ruffle",
		"image": "favicon-180.png"
	},
	{
		"name": "emulatorJS",
		"directory": "emulatorjs",
		"image": "logo.png"
	},
	{
		"name": "Geometry Rash",
		"directory": "geometryrash",
		"image": "icon-114.png"
	},
	{
		"name": "Bloons Tower Defense",
		"directory": "btd",
		"image": "logo.webp"
	},
	{
		"name": "Bloons Tower Defense 2",
		"directory": "btd2",
		"image": "logo.webp"
	},
	{
		"name": "Bloons Tower Defense 4",
		"directory": "btd4",
		"image": "logo.jpg"
	},
	{
		"name": "Bloons Tower Defense 6",
		"directory": "btd6",
		"image": "uwu.png"
	},
	{
		"name": "Bloons Tower Defense 5",
		"directory": "btd5",
		"image": "wogo.png"
	},
	{
		"name": "Last Horizon",
		"directory": "lasthorizon",
		"image": "wogo owo.jpg"
	},
	{
		"name": "1 on 1 Soccer",
		"directory": "1on1soccer",
		"image": "logo.jpg"
	},
	{
		"name": "Among Us",
		"directory": "amongus",
		"image": "amgojs]_.png"
	},
	{
		"name": "Bad Piggies",
		"directory": "badpiggies",
		"image": "badpiggies.png"
	},
	{
		"name": "Sandtrix",
		"directory": "sandtrix",
		"image": "assets/sprites/appicon.png"
	},
	{
		"name": "Blood Tournament",
		"directory": "bloodtournament",
		"image": "blood-tournament.jpg"
	},
	{
		"name": "Gold Digger FRVR",
		"directory": "golddiggerfrvr",
		"image": "images.jpeg"
	},
	{
		"name": "Retro Bowl College",
		"directory": "retrobowlcollege",
		"image": "unnamed.png"
	},
	{
		"name": "We Become What We Behold",
		"directory": "wbwwb",
		"image": "wbwwb.webp"
	},
	{
		"name": "Nut Simulator",
		"directory": "nutsim",
		"image": "images/icon.png"
	},
	{
		"name": "Pokemon",
		"directory": "pokemon",
		"image": "logo.jpg"
	},
	{
		"name": "Super Smash Bros",
		"directory": "supersmashbros",
		"image": "logo.jpg"
	},
	{
		"name": "Skibidi 1 v 100",
		"directory": "skibiditoilet",
		"image": "logo.png"
	},
	{
		"name": "Drive Mad",
		"directory": "drivemad",
		"image": "icons/icon-128.png"
	},
	{
		"name": "Rooftop Snipers",
		"directory": "rooftopsnipers",
		"image": "logo.png"
	},
	{
		"name": "Funny Shooter",
		"directory": "funnyshooter",
		"image": "icon.jpeg"
	},
	{
		"name": "Monkey Mart",
		"directory": "monkeymart",
		"image": "unnamed.png"
	},
	{
		"name": "Factory Balls",
		"directory": "factoryballs",
		"image": "fac.png"
	},
	{
		"name": "Factory Balls Forever",
		"directory": "factoryballsforever",
		"image": "fac.png"
	},
	{
		"name": "Funny Shooter 2",
		"directory": "funnyshooter2",
		"image": "894abba63a6b23fed823f404831f444f.jpeg"
	},
	{
		"name": "Bad Time Simulator",
		"directory": "badtimesimulator",
		"image": "icon-114.png"
	},
	{
		"name": "Commodore 64 Clicker",
		"directory": "commodoreclicker",
		"image": "test.jpg"
	},
	{
		"name": "Stickman Boost",
		"directory": "stickmanboost",
		"image": "base/img1.jpg"
	},
	{
		"name": "Stickman Golf",
		"directory": "stickmangolf",
		"image": "gold.png"
	},
	{
		"name": "Basket Bros",
		"directory": "basketbros",
		"image": "thumb.jpg"
	},
	{
		"name": "justfall.lol",
		"directory": "justfalllol",
		"image": "unnamed.png"
	},
	{
		"name": "Doge Miner",
		"directory": "dogeminer",
		"image": "img/dogeminer_300x300.png"
	},
	{
		"name": "Soccer Random",
		"directory": "soccerrandom",
		"image": "test.png"
	},
	{
		"name": "Basket Random",
		"directory": "basketrandom",
		"image": "test.png"
	},
	{
		"name": "Boxing Random",
		"directory": "boxingrandom",
		"image": "512x512.jpg"
	},
	{
		"name": "Funny Mad Racing",
		"directory": "funnymadracing",
		"image": "logo.webp"
	},
	{
		"name": "hole.io",
		"directory": "holeio",
		"image": "feature800x470.png"
	},
	{
		"name": "Time Shooter",
		"directory": "timeshooter1",
		"image": "logo.png"
	},
	{
		"name": "Time Shooter 2",
		"directory": "timeshooter2",
		"image": "ts2.jpg"
	},
	{
		"name": "Time Shooter 3",
		"directory": "timeshooter3",
		"image": "logo.png"
	},
	{
		"name": "Townscaper",
		"directory": "townscaper",
		"image": "icon.png"
	},
	{
		"name": "Bad Ice Cream",
		"directory": "badicecream",
		"image": "bad-ice-cream.png"
	},
	{
		"name": "Bad Ice Cream 2",
		"directory": "badicecream2",
		"image": "bad-ice-cream-2.png"
	},
	{
		"name": "Bad Ice Cream 3",
		"directory": "badicecream3",
		"image": "bad-ice-cream-3.png"
	},
	{
		"name": "Bob the Robber 2",
		"directory": "bobtherobber2",
		"image": "icon.png"
	},
	{
		"name": "Boxing Physics 2",
		"directory": "boxingphysics2",
		"image": "icon.png"
	},
	{
		"name": "Burger and Frights",
		"directory": "burgerandfrights",
		"image": "icon.png"
	},
	{
		"name": "Flippy Fish",
		"directory": "flippyfish",
		"image": "icon.png"
	},
	{
		"name": "Knife Hit",
		"directory": "knifehit",
		"image": "icon.png"
	},
	{
		"name": "Lazy Jump 3D",
		"directory": "lazyjump3d",
		"image": "icon.png"
	},
	{
		"name": "Moto X3M Spooky",
		"directory": "motox3m-spooky",
		"image": "icon.png"
	},
	{
		"name": "Rooftop Snipers 2",
		"directory": "rooftopsnipers2",
		"image": "icon.png"
	},
	{
		"name": "Skibidi Toilet Attack",
		"directory": "skibiditoiletattack",
		"image": "logo.png"
	},
	{
		"name": "Tiny Fishing",
		"directory": "tinyfishing",
		"image": "thumb.png"
	},
	{
		"name": "TU-95",
		"directory": "tu95",
		"image": "tu-95.webp"
	},
	{
		"name": "TU-46",
		"directory": "tu46",
		"image": "tu-46.webp"
	},
	{
		"name": "Russian Car Driver",
		"directory": "russiancardriver",
		"image": "russian-car-driver.webp"
	},
	{
		"name": "Legend of Zelda - Ocarina of Time",
		"directory": "ocarinaoftime",
		"image": "oc.jpg"
	},
	{
		"name": "Metroid: Zero Mission",
		"directory": "metroidzeromission",
		"image": "zero.jpeg"
	},
	{
		"name": "Guilty Gear",
		"directory": "guiltygear",
		"image": "ggx.jpg"
	},
	{
		"name": "A Dark Room",
		"directory": "adarkroom",
		"image": "favicon.ico"
	},
	{
		"name": "Fancy Pants Adventures",
		"directory": "fancypantsadventures",
		"image": "fpa.webp"
	},
	{
		"name": "Fancy Pants Adventures 2",
		"directory": "fancypantsadventures2",
		"image": "fpa2.avif"
	},
	{
		"name": "Line Rider",
		"directory": "linerider",
		"image": "boosh.png"
	},
	{
		"name": "Funny Ball Game",
		"directory": "funnyballgame",
		"image": "ball.jpg"
	},
	{
		"name": "Henry Stickmin - Stealing the Diamond",
		"directory": "stealingthediamond",
		"image": "diamante.avif"
	},
	{
		"name": "Henry Stickmin - Breaking the Bank",
		"directory": "breakingthebank",
		"image": "balling.avif"
	},
	{
		"name": "Henry Stickmin - Escaping the Prison",
		"directory": "escapingtheprison",
		"image": "pwison.avif"
	},
	{
		"name": "Henry Stickmin - Fleeing the Complex",
		"directory": "fleeingthecomplex",
		"image": "flee.jpg"
	},
	{
		"name": "Henry Stickmin - Infiltrating the Airship",
		"directory": "infiltratingtheairship",
		"image": "air.avif"
	},
	{
		"name": "Pandemic",
		"directory": "pandemic",
		"image": "sddefault.jpg"
	},
	{
		"name": "Pandemic 2",
		"directory": "pandemic2",
		"image": "pan2.webp"
	},
	{
		"name": "Age of War",
		"directory": "ageofwar",
		"image": "warofage.jpg"
	},
	{
		"name": "Soundboard",
		"directory": "soundboard",
		"image": "bleep.png"
	},
	{
		"name": "The Impossible Quiz",
		"directory": "theimpossiblequiz",
		"image": "tiq.avif"
	},
	{
		"name": "2D Rocket League",
		"directory": "2drocketleague",
		"image": "unnamed.png"
	},
	{
		"name": "Pizza Tower",
		"directory": "pizzatower",
		"image": "images/menubg.png"
	},
	{
		"name": "Monster Tracks",
		"directory": "monstertracks",
		"image": "webapp/cover.jpg"
	},
	{
		"name": "Totally Accurate Battle Simulator",
		"directory": "tabs",
		"image": "unnamed.png"
	},
	{
		"name": "CSGO Case Clicker",
		"directory": "csgoclicker",
		"image": "images/case1.png"
	},
	{
		"name": "The Final Earth 2",
		"directory": "thefinalearth2",
		"image": "icons/favicon.png"
	},
	{
		"name": "Baldi's Basics",
		"directory": "baldis-basics",
		"image": "splash.png"
	},
	{
		"name": "Cubefield",
		"directory": "cubefield",
		"image": "assets/unnamed.png"
	},
	{
		"name": "Minecraft Classic",
		"directory": "mcclassic",
		"image": "assets/textures/previews/2.png"
	},
	{
		"name": "Bit Planes",
		"directory": "bit-planes",
		"image": "bitplanes.png"
	},
	{
		"name": "Snow Rider 3D",
		"directory": "snowrider3d",
		"image": "snow.png"
	},
	{
		"name": "Dadish",
		"directory": "dadish",
		"image": "favicon.png"
	},
	{
		"name": "Dadish 2",
		"directory": "dadish2",
		"image": "favicon.png"
	},
	{
		"name": "Dadish 3",
		"directory": "dadish3",
		"image": "splash.png"
	},
	{
		"name": "Watermelon Game",
		"directory": "watermelongame",
		"image": "assets/sprites/tittle.png"
	},
	{
		"name": "Crimson Fantasia",
		"directory": "crimsonfantasia",
		"image": "14qAOu.png"
	},
	{
		"name": "Geometry Dash Lite",
		"directory": "gdlite",
		"image": "logo.png"
	}
]
